{
	"browserSyncOptions": {
		"proxy": "localhost:8080/",
		"notify": false
	},
	"browserSyncWatchFiles": ["./assets/css/*.min.css", "./assets/js/*.min.js", "./**/*.php"],
	"paths": {
		"js": "./assets/js",
		"css": "./assets/css",
		"img": "./assets/img",
		"imgsrc": "./assets/src/img",
		"sass": "./assets/sass",
		"node": "./node_modules/",
		"bower": "./bower_components/",
		"dev": "./assets/src",
		"dist": "./dist",
		"distprod": "./dist-product",
		"vendor": ""
	}
}
